-45 785 10 -45 795 10 -45 805 10 -35 795 10 -35 805 10 -25 795 10 -25 805 10 -15 795 10 
35 785 10 35 795 10 45 795 10 55 795 10 55 805 10 
85 795 10 85 805 10 85 815 10 95 795 10 95 805 10 
105 815 10 105 825 10 
145 795 10 145 805 10 155 805 10 165 815 10 
125 795 10 125 805 10 
-5 735 10 5 735 10 15 735 10 15 745 10 25 735 10 25 745 10 35 745 10 45 745 10 
65 695 10 65 705 10 65 715 10 65 725 10 65 735 10 65 745 10 75 695 10 75 705 10 75 715 10 
5 675 10 15 675 10 15 685 10 25 675 10 25 685 10 35 685 10 45 685 10 
5 635 10 5 645 10 15 605 10 15 615 10 15 625 10 15 635 10 15 645 10 25 595 10 25 605 10 25 615 10 25 625 10 25 645 10 35 605 10 35 615 10 35 625 10 
95 755 10 105 745 10 105 755 10 115 755 10 125 755 10 135 755 10 145 755 10 145 765 10 
105 715 10 115 715 10 125 715 10 125 725 10 135 725 10 
155 695 10 155 705 10 155 715 10 165 685 10 165 695 10 
65 645 10 75 645 10 75 655 10 85 655 10 95 655 10 105 655 10 105 665 10 115 665 10 125 665 10 
75 615 10 85 615 10 95 615 10 105 615 10 105 625 10 115 615 10 115 625 10 125 625 10 135 625 10 145 625 10 155 625 10 155 635 10 
165 655 10 165 665 10 175 635 10 175 645 10 175 655 10 
35 475 10 35 485 10 45 475 10 45 485 10 55 485 10 65 485 10 75 485 10 85 485 10 
105 495 10 115 495 10 
135 505 10 145 505 10 155 505 10 155 515 10 165 505 10 165 515 10 175 515 10 185 515 10 195 515 10 195 525 10 205 515 10 205 525 10 215 525 10 
295 545 10 305 545 10 305 555 10 315 545 10 315 555 10 325 545 10 325 555 10 
355 565 10 355 575 10 365 565 10 365 575 10 375 575 10 385 575 10 395 575 10 395 585 10 405 585 10 415 585 10 425 585 10 
465 595 10 465 605 10 475 595 10 475 605 10 
515 615 10 525 615 10 
575 625 10 575 635 10 585 625 10 585 635 10 
445 615 10 
485 675 10 485 685 10 495 685 10 
545 515 10 545 525 10 545 535 10 545 545 10 545 555 10 555 505 10 555 515 10 555 525 10 555 535 10 555 545 10 555 555 10 565 505 10 565 515 10 575 505 10 575 515 10 585 515 10 595 465 10 595 475 10 595 485 10 595 495 10 595 505 10 595 515 10 605 465 10 605 475 10 605 485 10 605 495 10 605 505 10 605 515 10 605 525 10 615 515 10 615 525 10 625 515 10 625 525 10 635 515 10 635 525 10 645 515 10 
615 535 10 615 545 10 615 555 10 625 535 10 625 545 10 625 555 10 635 535 10 635 545 10 635 555 10 
885 425 10 885 435 10 885 445 10 885 455 10 885 465 10 885 475 10 895 425 10 895 435 10 895 445 10 895 455 10 895 465 10 895 475 10 
185 345 10 185 355 10 185 365 10 195 345 10 195 355 10 195 365 10 205 345 10 205 355 10 205 365 10 
225 275 10 225 285 10 225 295 10 235 275 10 235 285 10 235 295 10 245 275 10 245 285 10 245 295 10 
245 235 10 255 235 10 
15 285 10 25 285 10 35 285 10 45 285 10 55 285 10 65 285 10 65 295 10 75 265 10 75 275 10 75 285 10 75 295 10 75 305 10 75 315 10 75 325 10 75 335 10 85 255 10 85 265 10 85 275 10 85 285 10 85 295 10 85 305 10 85 315 10 85 325 10 85 335 10 95 255 10 95 265 10 95 275 10 95 285 10 95 295 10 95 305 10 105 265 10 105 275 10 105 285 10 105 305 10 115 265 10 115 275 10 115 285 10 115 305 10 
545 355 10 555 355 10 565 355 10 575 355 10 585 355 10 595 355 10 605 355 10 
615 285 10 615 295 10 615 305 10 615 315 10 615 325 10 615 335 10 625 285 10 625 295 10 
1005 475 10 1005 485 10 1015 485 10 
325 -265 10 325 -255 10 325 -245 10 325 -235 10 325 -225 10 
345 -265 10 345 -255 10 345 -245 10 345 -235 10 345 -225 10 345 -215 10 355 -265 10 355 -255 10 355 -245 10 355 -235 10 355 -225 10 355 -215 10 
705 -215 10 705 -205 10 705 -195 10 705 -185 10 705 -175 10 715 -215 10 715 -205 10 715 -195 10 715 -185 10 715 -175 10 735 -245 10 735 -235 10 735 -225 10 735 -215 10 735 -205 10 735 -195 10 735 -185 10 735 -175 10 745 -245 10 745 -235 10 745 -225 10 745 -215 10 745 -205 10 745 -195 10 745 -185 10 745 -175 10 755 -205 10 765 -205 10 775 -205 10 785 -205 10 785 -195 10 785 -185 10 785 -175 10 795 -245 10 795 -235 10 795 -225 10 795 -215 10 795 -205 10 795 -195 10 795 -185 10 795 -175 10 805 -245 10 805 -235 10 805 -225 10 805 -205 10 815 -205 10 825 -205 10 825 -195 10 825 -185 10 825 -175 10 835 -205 10 835 -195 10 835 -185 10 835 -175 10 845 -205 10 845 -195 10 845 -185 10 845 -175 10 855 -205 10 865 -205 10 875 -205 10 885 -205 10 895 -205 10 
1115 -195 10 1125 -215 10 1125 -205 10 1125 -185 10 1125 -175 10 1125 -165 10 1125 -155 10 1135 -165 10 1135 -155 10 1145 -165 10 1145 -155 10 1155 -165 10 1165 -175 10 1165 -165 10 1175 -185 10 1175 -175 10 1175 -165 10 1175 -155 10 
1215 -195 10 1215 -185 10 1225 -195 10 1225 -185 10 1235 -195 10 1245 -235 10 1245 -205 10 1245 -195 10 1255 -215 10 1255 -205 10 
1155 -215 10 1165 -225 10 1165 -215 10 1165 -205 10 1175 -215 10 1175 -205 10 1175 -195 10 
1135 -245 10 1145 -245 10 1155 -255 10 1155 -245 10 1165 -255 10 1175 -255 10 
525 -135 10 525 -105 10 525 -85 10 535 -135 10 535 -115 10 535 -105 10 535 -85 10 545 -135 10 545 -125 10 545 -115 10 545 -105 10 545 -95 10 545 -85 10 555 -125 10 555 -95 10 565 -125 10 565 -95 10 
715 -45 10 715 -35 10 715 -25 10 715 -15 10 715 -5 10 
685 -85 10 695 -115 10 695 -85 10 705 -125 10 705 -105 10 705 -95 10 705 -75 10 715 -125 10 715 -105 10 715 -95 10 715 -75 10 
815 5 10 825 5 10 835 5 10 845 5 10 855 5 10 855 15 10 865 5 10 865 15 10 875 5 10 875 15 10 885 5 10 895 5 10 905 5 10 
925 -15 10 935 -15 10 945 -15 10 955 -15 10 965 -25 10 965 -15 10 
975 -65 10 985 -65 10 
965 -95 10 975 -95 10 
975 -125 10 975 -115 10 985 -125 10 985 -115 10 
1025 -75 10 1025 -65 10 1035 -75 10 1035 -65 10 
1075 -65 10 1075 -55 10 1085 -65 10 1085 -55 10 
1125 -65 10 1125 -55 10 
1065 -95 10 1065 -85 10 1075 -95 10 1075 -85 10 
1025 -115 10 1025 -105 10 1035 -115 10 1035 -105 10 
1055 -145 10 1055 -135 10 1065 -145 10 1065 -135 10 
1095 -125 10 1095 -115 10 
745 35 10 745 45 10 745 55 10 745 65 10 745 75 10 755 35 10 755 45 10 755 55 10 755 65 10 755 75 10 765 35 10 765 45 10 765 55 10 765 65 10 765 75 10 
715 75 10 725 65 10 725 75 10 735 65 10 735 75 10 
875 155 10 885 155 10 895 155 10 895 165 10 895 175 10 905 145 10 905 165 10 905 175 10 915 145 10 915 165 10 915 175 10 
1085 35 10 1095 35 10 1105 35 10 1115 35 10 1125 35 10 1135 35 10 
1035 -25 10 1035 -15 10 1045 -25 10 1045 -15 10 
1085 -25 10 1085 -15 10 1095 -25 10 1095 -15 10 
1135 -15 10 1135 -5 10 1145 -15 10 
1105 215 10 
1125 205 10 1135 205 10 1135 215 10 
1125 145 10 1125 155 10 1125 165 10 1125 175 10 1125 185 10 1135 145 10 1135 155 10 1135 165 10 1135 175 10 1135 185 10 
1185 195 10 1185 205 10 1185 215 10 1195 145 10 1195 155 10 1195 165 10 1195 175 10 1195 185 10 1195 195 10 
1155 95 10 1155 105 10 1155 115 10 1155 125 10 1165 65 10 1165 75 10 1165 85 10 1165 95 10 1165 105 10 1165 115 10 1165 125 10 
1195 45 10 
1225 195 10 1225 205 10 1225 215 10 1225 225 10 1235 195 10 1235 205 10 
1225 165 10 1235 165 10 1245 165 10 1255 165 10 1265 165 10 
1225 115 10 1235 115 10 1245 115 10 1255 115 10 1265 115 10 
1235 45 10 1235 55 10 1235 65 10 1235 75 10 1235 85 10 
455 635 10 
475 635 10 485 625 10 485 635 10 495 625 10 
525 675 10 535 665 10 
435 695 10 435 705 10 445 695 10 
415 685 10 415 695 10 415 705 10 
425 665 10 425 675 10 
435 655 10 
335 625 10 335 635 10 345 595 10 345 605 10 345 615 10 345 625 10 355 595 10 
355 645 10 365 645 10 
375 655 10 385 655 10 395 655 10 
395 645 10 
415 615 10 415 625 10 
395 615 10 
305 625 10 305 635 10 
305 605 10 315 605 10 
325 575 10 325 585 10 
285 565 10 295 565 10 
235 565 10 245 565 10 255 565 10 255 575 10 
235 575 10 
225 585 10 
255 625 10 265 605 10 265 615 10 265 625 10 
285 625 10 
85 565 10 85 575 10 85 585 10 95 565 10 
115 585 10 
125 575 10 125 585 10 
135 565 10 
135 535 10 135 545 10 
95 535 10 95 545 10 
115 535 10 125 535 10 
105 515 10 
155 575 10 155 595 10 165 565 10 165 575 10 165 585 10 
185 595 10 195 595 10 195 605 10 
195 585 10 
205 575 10 205 585 10 
205 795 10 
175 785 10 185 785 10 
195 785 10 
175 765 10 185 745 10 185 755 10 185 765 10 
185 725 10 195 695 10 195 705 10 195 715 10 
195 735 10 
215 645 10 215 655 10 215 665 10 225 645 10 225 655 10 
245 685 10 
235 795 10 245 795 10 
255 775 10 
225 785 10 
265 765 10 265 775 10 
265 755 10 
265 735 10 275 725 10 275 735 10 
265 715 10 
275 715 10 285 705 10 285 715 10 
285 685 10 
295 675 10 
295 665 10 
275 655 10 
265 645 10 
295 765 10 
315 745 10 315 755 10 
325 745 10 335 715 10 335 735 10 
315 735 10 
355 725 10 355 735 10 365 725 10 
305 715 10 
315 705 10 315 715 10 
315 685 10 325 685 10 
325 665 10 
345 665 10 345 675 10 
385 675 10 
-135 765 10 
-135 735 10 -135 745 10 
-115 715 10 -115 725 10 -115 735 10 -105 725 10 -105 735 10 -95 725 10 -85 735 10 -85 745 10 
-85 705 10 -75 705 10 -75 715 10 
-75 675 10 -65 665 10 -65 675 10 
-65 645 10 -55 635 10 -55 645 10 
-55 615 10 -55 625 10 -45 605 10 
-45 575 10 -45 585 10 -35 585 10 
-85 575 10 -85 585 10 
-75 575 10 -65 575 10 -55 575 10 
-95 595 10 -95 605 10 
-105 645 10 
-105 625 10 -95 625 10 
-115 665 10 -105 655 10 
-115 675 10 
-125 705 10 -115 695 10 
-45 695 10 -45 705 10 
-45 675 10 -35 675 10 
-45 665 10 -35 665 10 
-35 635 10 -35 645 10 
-25 615 10 -25 625 10 
-25 605 10 -15 585 10 -5 605 10 
-45 735 10 -45 745 10 -35 735 10 
-55 715 10 -55 725 10 
-65 755 10 
-445 265 10 -445 275 10 -435 265 10 -435 275 10 -425 265 10 -415 265 10 
-435 285 10 -435 295 10 -425 295 10 -415 295 10 
-495 285 10 -485 285 10 -475 285 10 -465 275 10 -465 285 10 
-885 175 10 -885 185 10 -885 195 10 -885 205 10 -885 215 10 -885 225 10 -875 175 10 -875 185 10 -875 195 10 -875 205 10 -875 215 10 -875 225 10 -875 255 10 -865 175 10 -865 185 10 -865 195 10 -865 215 10 -865 225 10 -865 235 10 -865 245 10 -865 255 10 -855 215 10 -855 225 10 -845 215 10 -845 225 10 -845 235 10 -835 215 10 -835 225 10 -835 235 10 -825 195 10 -825 205 10 -825 215 10 -825 225 10 -825 235 10 -825 245 10 -825 255 10 -815 195 10 -815 205 10 -815 215 10 -815 225 10 -815 235 10 -815 245 10 -815 255 10 -805 215 10 -805 225 10 -805 235 10 -795 215 10 -795 225 10 -795 235 10 -785 195 10 -785 205 10 -785 215 10 -785 225 10 -785 235 10 -785 245 10 -785 255 10 -785 265 10 -775 195 10 -775 205 10 -775 215 10 -775 225 10 -775 235 10 -775 245 10 -775 255 10 -775 265 10 -765 215 10 -765 225 10 -765 235 10 -765 245 10 -765 255 10 -765 265 10 -765 275 10 
-815 545 10 -815 555 10 -805 545 10 -805 555 10 -805 565 10 -795 565 10 -785 555 10 -785 565 10 
-825 525 10 -825 535 10 -815 525 10 -815 535 10 -805 525 10 -805 535 10 -795 515 10 -795 525 10 -795 535 10 -785 535 10 -775 525 10 -775 535 10 
-885 535 10 -885 545 10 -875 545 10 -865 545 10 -855 545 10 -845 535 10 -845 545 10 
-735 535 10 -735 545 10 -725 535 10 -725 545 10 -715 535 10 -715 545 10 
-955 525 10 -945 525 10 -935 525 10 -935 535 10 -935 545 10 -935 555 10 -925 525 10 -915 525 10 -915 535 10 
-535 185 10 -535 195 10 -535 205 10 -525 185 10 -525 195 10 -515 185 10 -515 195 10 -505 185 10 -505 195 10 -495 185 10 -495 195 10 -495 205 10 
-105 325 10 -105 335 10 -95 275 10 -95 285 10 -95 295 10 -95 305 10 -95 315 10 -95 325 10 -95 335 10 -85 275 10 -85 285 10 -85 295 10 -85 305 10 
-225 305 10 -225 325 10 -215 305 10 -205 305 10 -205 315 10 -205 325 10 -205 335 10 -195 305 10 -195 335 10 -185 305 10 -185 315 10 
-615 -55 10 -615 -45 10 -615 -35 10 -615 -25 10 -615 -15 10 -605 -55 10 -605 -45 10 -605 -35 10 -605 -25 10 -605 -15 10 -595 -55 10 -595 -45 10 -595 -35 10 -595 -25 10 -595 -15 10 -585 -55 10 -585 -45 10 -585 -35 10 -585 -25 10 -585 -15 10 -585 -5 10 -585 5 10 -585 15 10 -575 -25 10 -575 -15 10 -575 -5 10 -575 5 10 -575 15 10 -565 -35 10 -565 -25 10 -565 -15 10 -565 -5 10 -565 5 10 -555 -35 10 -555 -25 10 -555 -15 10 -555 -5 10 -555 5 10 -545 -35 10 -545 -25 10 -545 -15 10 -545 -5 10 -545 5 10 -535 -35 10 -535 -25 10 -535 -15 10 -535 -5 10 -535 5 10 -535 15 10 -525 -25 10 -525 -15 10 -525 -5 10 -525 5 10 -525 15 10 -515 -25 10 -515 -15 10 -515 -5 10 -515 5 10 -515 15 10 -505 -45 10 -505 -35 10 -505 -25 10 -505 -15 10 -505 -5 10 -505 5 10 -505 15 10 -495 -65 10 -495 -55 10 -495 -45 10 -495 -35 10 -495 -25 10 -495 -15 10 -495 -5 10 -495 5 10 -495 15 10 -485 -65 10 -485 -55 10 -485 -45 10 -485 -35 10 -485 -25 10 -485 -15 10 -485 -5 10 -485 5 10 -485 15 10 -475 -15 10 -475 -5 10 -475 5 10 -475 15 10 -465 -15 10 -465 -5 10 -465 5 10 -465 15 10 -465 25 10 -455 -35 10 -455 -25 10 -455 -15 10 -455 -5 10 -455 5 10 -455 15 10 -445 -35 10 -445 -25 10 -445 -15 10 -445 -5 10 -445 5 10 -445 15 10 -435 -35 10 -435 -25 10 -435 -15 10 -435 -5 10 -435 5 10 -435 15 10 -425 -25 10 -425 -15 10 -425 -5 10 -425 5 10 -425 15 10 -425 25 10 -425 35 10 -425 45 10 -415 -25 10 -415 -15 10 -415 -5 10 -415 5 10 -415 15 10 -415 25 10 -415 35 10 -415 45 10 -405 -45 10 -405 -35 10 -405 -25 10 -405 -15 10 -405 -5 10 -405 25 10 -405 35 10 -405 45 10 -395 25 10 -395 35 10 -395 45 10 
-155 -5 10 -155 5 10 -145 5 10 -145 15 10 -145 25 10 -145 35 10 -135 5 10 -135 15 10 -135 25 10 -125 5 10 -125 15 10 -125 25 10 
-215 -5 10 -215 5 10 -215 15 10 -205 5 10 -205 25 10 -195 5 10 -195 15 10 -195 25 10 -185 -5 10 -185 5 10 -185 15 10 -175 15 10 
-75 245 10 -65 235 10 -65 245 10 -55 235 10 -55 245 10 -45 245 10 -35 245 10 -25 245 10 
-1045 -275 10 -1035 -285 10 -1035 -275 10 -1035 -265 10 -1025 -315 10 -1025 -305 10 -1025 -295 10 -1025 -285 10 -1025 -275 10 -1025 -265 10 -1015 -305 10 -1015 -295 10 -1015 -285 10 -1015 -275 10 
-615 -655 10 -615 -645 10 -615 -635 10 -605 -685 10 -605 -675 10 -605 -665 10 -605 -655 10 -605 -645 10 -605 -635 10 
-815 -505 10 -805 -505 10 -805 -475 10 -795 -505 10 -795 -495 10 -795 -485 10 -795 -475 10 -785 -505 10 -785 -495 10 -785 -485 10 
-865 -505 10 -865 -495 10 -865 -485 10 -855 -505 10 -855 -495 10 -855 -485 10 -855 -475 10 -845 -505 10 -845 -475 10 -835 -505 10 -835 -495 10 -825 -495 10 
-535 -445 10 -525 -445 10 -525 -435 10 -525 -425 10 -525 -415 10 -515 -445 10 -515 -435 10 -515 -425 10 -505 -445 10 -505 -435 10 -505 -425 10 
-595 -445 10 -595 -435 10 -595 -425 10 -585 -445 10 -585 -435 10 -585 -425 10 -575 -435 10 -575 -425 10 -575 -415 10 -565 -445 10 -565 -435 10 
-365 -615 10 -355 -625 10 -355 -615 10 -355 -605 10 -345 -625 10 -345 -615 10 -335 -625 10 -335 -615 10 -325 -625 10 -325 -615 10 -315 -625 10 -315 -615 10 -315 -605 10 -305 -615 10 
-375 -535 10 -375 -525 10 -365 -535 10 -365 -525 10 -355 -535 10 -355 -525 10 -355 -515 10 -345 -535 10 -345 -525 10 -345 -515 10 -335 -535 10 -335 -525 10 -335 -515 10 -325 -535 10 -325 -525 10 -325 -515 10 -315 -535 10 -315 -525 10 -315 -515 10 
-565 -515 10 -565 -505 10 -555 -515 10 -555 -505 10 -545 -515 10 -545 -505 10 -535 -525 10 -535 -515 10 -535 -505 10 -525 -525 10 -525 -515 10 -525 -505 10 -515 -525 10 -515 -515 10 -515 -505 10 -505 -515 10 -505 -505 10 -495 -515 10 -495 -505 10 -485 -525 10 -485 -515 10 -485 -505 10 -475 -515 10 -475 -505 10 -465 -515 10 -465 -505 10 -455 -515 10 -455 -505 10 -445 -515 10 -445 -505 10 -435 -515 10 -435 -505 10 -435 -495 10 -425 -515 10 -425 -505 10 -425 -495 10 -415 -515 10 -415 -505 10 -415 -495 10 -405 -515 10 -405 -505 10 
-215 -375 10 -215 -365 10 -205 -375 10 -205 -365 10 
5 -205 10 5 -195 10 5 -185 10 5 -175 10 5 -165 10 5 -155 10 5 -145 10 15 -205 10 15 -195 10 15 -185 10 15 -175 10 15 -165 10 15 -155 10 15 -145 10 
-145 -375 10 -145 -355 10 -135 -375 10 -135 -365 10 -135 -355 10 -135 -345 10 -125 -375 10 -125 -365 10 -125 -355 10 -125 -345 10 -115 -375 10 -115 -365 10 -115 -355 10 -115 -345 10 -105 -375 10 -105 -355 10 
-15 -375 10 -15 -365 10 -5 -375 10 -5 -345 10 5 -365 10 5 -355 10 5 -345 10 15 -375 10 15 -365 10 
-65 -375 10 -55 -375 10 -55 -365 10 -55 -355 10 -55 -345 10 -45 -375 10 -45 -365 10 -45 -355 10 -45 -345 10 -35 -375 10 -35 -365 10 
135 -295 10 145 -295 10 155 -295 10 165 -295 10 165 -285 10 175 -295 10 185 -295 10 195 -295 10 
15 -255 10 15 -245 10 25 -265 10 25 -255 10 25 -245 10 35 -265 10 35 -255 10 35 -245 10 
-525 -245 10 -515 -265 10 -515 -255 10 -515 -245 10 -515 -235 10 -505 -265 10 -505 -255 10 -505 -245 10 -505 -235 10 -495 -265 10 -495 -255 10 -495 -245 10 -495 -235 10 -485 -265 10 -485 -255 10 -485 -245 10 -485 -235 10 
-985 -275 10 -985 -265 10 -975 -265 10 -965 -265 10 -955 -265 10 -945 -265 10 -935 -275 10 -935 -265 10 
-1175 625 10 -1165 605 10 -1165 615 10 -1165 625 10 -1155 605 10 -1155 615 10 -1155 625 10 -1145 605 10 
-415 485 10 -415 495 10 -405 485 10 -405 495 10 -395 485 10 -395 495 10 -385 455 10 -385 465 10 -385 475 10 -385 485 10 -385 495 10 -375 465 10 -375 475 10 -375 485 10 -375 495 10 -365 465 10 -365 475 10 -365 485 10 -365 495 10 -355 465 10 -355 475 10 -355 485 10 -355 495 10 -355 505 10 -345 465 10 -345 475 10 -345 485 10 -345 495 10 -345 505 10 -335 465 10 -335 475 10 -325 465 10 -325 475 10 
-535 655 10 -535 665 10 -535 675 10 -535 685 10 -535 695 10 -535 705 10 -535 715 10 -525 655 10 -525 665 10 -525 675 10 -525 685 10 -525 695 10 -525 705 10 -525 715 10 -515 665 10 -515 675 10 -515 685 10 -515 695 10 -515 705 10 -515 715 10 -515 725 10 -505 665 10 -505 675 10 -505 685 10 -505 695 10 -505 705 10 -505 715 10 -505 725 10 
-495 725 10 -485 675 10 -485 685 10 -485 695 10 -485 705 10 -485 715 10 -485 725 10 -475 675 10 -475 685 10 -475 695 10 -475 705 10 -475 715 10 -475 725 10 -475 735 10 -475 745 10 -475 755 10 -465 715 10 -465 725 10 -465 735 10 -465 745 10 -465 755 10 -455 715 10 -455 725 10 -445 715 10 -445 725 10 -435 715 10 -435 725 10 -435 755 10 -425 695 10 -425 705 10 -425 715 10 -425 725 10 -425 735 10 -425 745 10 -425 755 10 -415 695 10 -415 705 10 -415 715 10 -415 725 10 -415 735 10 -405 715 10 -405 725 10 -405 735 10 -395 715 10 -395 725 10 -395 735 10 -385 695 10 -385 705 10 -385 715 10 -385 725 10 -385 735 10 -385 745 10 -385 755 10 -375 695 10 -375 705 10 -375 715 10 -375 725 10 -375 735 10 -375 745 10 -375 755 10 -365 715 10 -365 725 10 -365 735 10 
-605 645 10 -605 655 10 -595 655 10 -585 655 10 -585 665 10 -585 675 10 -585 685 10 -575 655 10 -565 655 10 
-605 705 10 -605 715 10 -605 725 10 -595 705 10 -595 715 10 -595 735 10 -585 705 10 -585 715 10 -585 735 10 -575 705 10 -575 715 10 
825 -105 10 825 -95 10 835 -105 10 835 -95 10 835 -85 10 845 -105 10 845 -85 10 845 -75 10 855 -125 10 855 -115 10 855 -105 10 855 -75 10 855 -65 10 865 -125 10 865 -115 10 865 -105 10 865 -65 10 865 -55 10 875 -135 10 875 -125 10 875 -115 10 875 -105 10 875 -55 10 885 -125 10 885 -115 10 885 -105 10 885 -95 10 885 -45 10 895 -115 10 895 -105 10 895 -95 10 895 -85 10 905 -105 10 905 -95 10 905 -85 10 905 -75 10 905 -65 10 905 -55 10 915 -105 10 915 -95 10 915 -85 10 915 -75 10 915 -65 10 915 -55 10 915 -45 10 
725 185 10 735 155 10 735 165 10 735 175 10 735 185 10 735 195 10 745 155 10 745 165 10 745 175 10 745 185 10 745 195 10 755 155 10 
735 105 10 735 115 10 735 125 10 735 135 10 735 145 10 745 105 10 745 115 10 745 125 10 745 135 10 745 145 10 
755 105 10 
-715 405 10 -715 415 10 -705 405 10 -705 415 10 -695 405 10 -695 415 10 -685 405 10 -685 415 10 -675 405 10 -675 415 10 -665 405 10 -665 415 10 -655 405 10 -655 415 10 -645 405 10 -645 415 10 -635 405 10 -635 415 10 -625 415 10 -615 415 10 -605 415 10 -595 415 10 -585 415 10 -575 415 10 -565 415 10 -555 415 10 -545 415 10 -535 415 10 -525 385 10 -525 395 10 -525 405 10 -525 415 10 -525 425 10 -515 385 10 -515 395 10 -515 405 10 -515 415 10 -515 425 10 -505 385 10 -505 395 10 -505 405 10 -505 415 10 -505 425 10 -495 385 10 -495 395 10 -495 405 10 -495 415 10 -495 425 10 -485 385 10 -485 395 10 -485 405 10 -485 415 10 -485 425 10 -475 385 10 -475 395 10 -475 405 10 -475 415 10 -475 425 10 -465 385 10 -465 395 10 -465 405 10 -465 415 10 -465 425 10 -455 385 10 -455 395 10 -455 405 10 -455 415 10 -455 425 10 -445 395 10 -445 405 10 -445 415 10 -445 425 10 -435 395 10 -435 405 10 -435 415 10 -435 425 10 
-675 475 10 -675 485 10 -665 455 10 -665 465 10 -665 475 10 -665 485 10 -665 495 10 -655 455 10 -655 465 10 -655 475 10 -655 485 10 -655 495 10 -645 455 10 -645 465 10 -645 475 10 -645 485 10 -645 495 10 -635 455 10 -635 465 10 -635 475 10 -635 485 10 -635 495 10 -625 455 10 -625 465 10 -625 475 10 -625 485 10 -625 495 10 -615 455 10 -615 465 10 -615 475 10 -615 485 10 -615 495 10 -605 455 10 -605 465 10 -605 475 10 -605 485 10 -605 495 10 -595 455 10 -595 465 10 -595 475 10 -595 485 10 -595 495 10 -585 455 10 -585 465 10 -585 475 10 -585 485 10 -585 495 10 -585 505 10 -575 455 10 -575 465 10 -575 475 10 -575 485 10 -575 495 10 -575 505 10 -565 455 10 -565 465 10 -565 475 10 -565 485 10 -565 495 10 -565 505 10 -555 455 10 -555 465 10 -555 475 10 -555 485 10 -555 495 10 -555 505 10 
275 365 10 285 275 10 285 285 10 285 295 10 285 315 10 285 325 10 285 335 10 285 345 10 285 355 10 285 365 10 295 195 10 295 275 10 295 285 10 295 295 10 295 305 10 295 315 10 295 325 10 295 335 10 295 345 10 295 355 10 295 365 10 305 195 10 305 205 10 305 275 10 305 285 10 305 295 10 305 305 10 305 315 10 305 325 10 305 335 10 305 345 10 305 355 10 305 365 10 315 195 10 315 205 10 315 275 10 315 285 10 315 295 10 315 305 10 315 315 10 315 325 10 315 335 10 315 345 10 315 355 10 315 365 10 325 195 10 325 205 10 325 275 10 325 285 10 325 295 10 325 305 10 325 315 10 325 325 10 325 335 10 325 345 10 325 355 10 325 365 10 335 195 10 335 205 10 335 265 10 335 275 10 335 285 10 335 295 10 335 305 10 335 315 10 335 325 10 335 335 10 345 195 10 345 205 10 345 265 10 355 175 10 355 185 10 355 195 10 355 205 10 355 265 10 365 175 10 365 185 10 365 195 10 365 205 10 365 215 10 365 225 10 365 235 10 365 245 10 365 255 10 365 265 10 365 275 10 375 175 10 375 185 10 375 195 10 375 205 10 375 215 10 385 185 10 385 195 10 385 205 10 385 215 10 395 185 10 395 195 10 395 205 10 395 215 10 405 185 10 405 195 10 405 205 10 405 215 10 415 185 10 415 195 10 415 205 10 415 215 10 415 225 10 415 235 10 415 245 10 415 255 10 415 265 10 415 275 10 425 185 10 425 195 10 425 205 10 425 215 10 425 225 10 425 235 10 435 185 10 435 195 10 435 205 10 435 215 10 435 225 10 435 235 10 445 175 10 445 185 10 445 195 10 445 205 10 445 215 10 445 225 10 445 235 10 455 185 10 455 195 10 455 205 10 455 215 10 465 185 10 465 195 10 465 205 10 465 215 10 475 185 10 475 195 10 475 205 10 475 215 10 485 185 10 485 195 10 485 205 10 485 215 10 495 185 10 495 195 10 495 205 10 495 215 10 505 185 10 505 195 10 505 205 10 505 215 10 515 185 10 515 195 10 515 205 10 515 215 10 525 185 10 525 195 10 525 205 10 525 215 10 535 185 10 535 195 10 535 205 10 535 215 10 545 185 10 545 195 10 545 205 10 545 215 10 555 185 10 555 195 10 555 205 10 555 215 10 565 185 10 565 195 10 565 205 10 565 215 10 575 185 10 575 195 10 575 205 10 575 215 10 585 185 10 585 195 10 585 205 10 585 215 10 595 185 10 595 195 10 595 205 10 595 215 10 605 185 10 605 195 10 605 205 10 605 215 10 615 205 10 615 215 10 625 205 10 625 215 10 635 205 10 635 215 10 645 205 10 645 215 10 655 205 10 655 215 10 
355 405 30 355 415 30 355 425 30 355 435 30 355 445 30 355 455 30 355 465 30 355 475 30 355 485 30 355 495 30 355 505 30 365 405 30 365 415 30 365 425 30 365 435 30 365 485 30 365 495 30 365 505 30 
165 445 30 165 455 30 175 445 30 175 455 30 185 455 30 195 455 30 205 455 30 215 455 30 225 455 30 225 465 30 235 455 30 235 465 30 245 455 30 245 465 30 255 455 30 255 465 30 265 465 30 275 465 30 285 465 30 295 465 30 305 465 30 
185 405 30 
195 405 30 205 405 30 215 405 30 225 405 30 235 405 30 245 405 30 255 405 30 255 415 30 265 415 30 275 415 30 285 415 30 295 415 30 305 415 30 315 415 30 325 415 30 
135 375 30 135 385 30 135 395 30 135 405 30 135 415 30 145 335 30 145 345 30 145 355 30 145 365 30 145 375 30 145 385 30 145 395 30 
105 225 30 115 225 30 125 225 30 135 225 30 145 225 30 155 225 30 165 225 30 175 225 30 185 225 30 195 225 30 205 225 30 215 225 30 225 225 30 235 225 30 
355 365 30 365 365 30 375 365 30 385 355 30 385 365 30 395 355 30 395 365 30 405 355 30 405 365 30 415 365 30 
425 285 30 425 295 30 425 305 30 425 315 30 425 325 30 425 335 30 425 345 30 435 285 30 435 295 30 435 305 30 435 315 30 435 325 30 435 335 30 435 345 30 
645 265 30 655 235 30 655 245 30 655 255 30 655 265 30 
635 355 30 645 355 30 655 295 30 655 305 30 655 315 30 655 325 30 655 335 30 655 345 30 655 355 30 665 295 30 665 305 30 665 315 30 665 325 30 665 335 30 665 345 30 
635 375 30 635 385 30 635 395 30 635 405 30 635 415 30 645 375 30 645 385 30 645 395 30 645 405 30 645 415 30 645 425 30 655 375 30 655 385 30 655 395 30 655 405 30 655 415 30 655 425 30 665 375 30 665 385 30 665 395 30 665 405 30 
695 335 30 
715 335 30 725 335 30 735 335 30 745 335 30 755 335 30 765 335 30 765 345 30 775 335 30 775 345 30 
785 365 30 795 365 30 795 375 30 805 365 30 805 375 30 815 375 30 825 375 30 
915 515 30 925 525 30 
175 -385 30 175 -375 30 185 -385 30 185 -375 30 
205 -365 30 215 -375 30 215 -365 30 225 -375 30 225 -365 30 
265 -315 30 275 -345 30 275 -335 30 275 -325 30 275 -315 30 285 -345 30 285 -335 30 285 -325 30 285 -315 30 
315 -335 30 315 -325 30 325 -325 30 
355 -325 30 355 -315 30 355 -305 30 365 -325 30 365 -315 30 
385 -295 30 395 -315 30 395 -305 30 395 -295 30 405 -305 30 405 -295 30 
235 -265 30 235 -255 30 235 -215 30 245 -255 30 245 -245 30 245 -235 30 245 -225 30 245 -215 30 255 -205 30 265 -205 30 275 -205 30 285 -205 30 285 -195 30 295 -205 30 295 -195 30 305 -205 30 305 -195 30 315 -205 30 315 -195 30 
375 -205 30 375 -195 30 385 -205 30 385 -195 30 395 -205 30 395 -195 30 405 -205 30 405 -195 30 415 -205 30 415 -195 30 425 -205 30 425 -195 30 435 -205 30 435 -195 30 445 -205 30 445 -195 30 455 -205 30 455 -195 30 465 -205 30 465 -195 30 475 -205 30 475 -195 30 485 -205 30 485 -195 30 
515 -265 30 515 -255 30 515 -245 30 515 -235 30 515 -225 30 515 -215 30 
145 -25 30 155 -25 30 165 -25 30 175 -25 30 185 -25 30 195 -25 30 195 -15 30 205 -25 30 205 -15 30 215 -25 30 215 -15 30 225 -25 30 225 -15 30 235 -25 30 235 -15 30 245 -25 30 245 -15 30 255 -25 30 255 -15 30 265 -25 30 265 -15 30 275 -15 30 285 -15 30 295 -15 30 305 -15 30 315 -15 30 325 -15 30 335 -15 30 335 -5 30 
355 -35 30 355 -25 30 355 -15 30 355 -5 30 365 -45 30 365 -35 30 365 -25 30 365 -15 30 365 -5 30 375 -45 30 375 -35 30 375 -25 30 375 -15 30 375 -5 30 385 -45 30 385 -35 30 385 -25 30 385 -15 30 385 -5 30 395 -45 30 395 -35 30 395 -25 30 395 -15 30 395 -5 30 
185 -85 30 185 -75 30 195 -85 30 205 -85 30 215 -85 30 215 -75 30 225 -75 30 235 -75 30 
275 -75 30 285 -75 30 285 -65 30 295 -75 30 295 -65 30 305 -75 30 305 -65 30 315 -75 30 315 -65 30 
335 -155 30 335 -145 30 335 -135 30 335 -125 30 335 -115 30 335 -105 30 335 -95 30 335 -85 30 335 -75 30 
385 -155 30 385 -145 30 385 -135 30 385 -125 30 385 -115 30 385 -105 30 385 -95 30 385 -85 30 385 -75 30 395 -155 30 395 -145 30 395 -135 30 395 -125 30 395 -115 30 395 -105 30 
385 25 30 385 35 30 385 45 30 385 55 30 
425 -45 30 435 -45 30 435 -35 30 445 -45 30 445 -35 30 455 -45 30 455 -35 30 465 -45 30 465 -35 30 475 -45 30 475 -35 30 485 -45 30 485 -35 30 495 -45 30 495 -35 30 505 -45 30 505 -35 30 515 -45 30 515 -35 30 525 -45 30 525 -35 30 
445 -95 30 445 -85 30 455 -95 30 465 -95 30 475 -95 30 485 -95 30 
575 5 30 575 15 30 585 5 30 585 15 30 595 15 30 605 15 30 615 15 30 625 15 30 635 15 30 645 15 30 655 15 30 665 15 30 675 15 30 
755 -55 30 755 -45 30 755 -35 30 755 -25 30 755 -15 30 755 -5 30 755 5 30 765 -95 30 765 -85 30 765 -75 30 765 -65 30 765 -55 30 765 -45 30 765 -35 30 765 -25 30 765 -15 30 765 -5 30 765 5 30 775 -95 30 
815 65 30 825 65 30 835 65 30 845 65 30 855 65 30 865 65 30 875 65 30 885 65 30 895 65 30 905 65 30 915 65 30 925 65 30 935 65 30 945 65 30 
575 65 30 585 65 30 595 65 30 605 65 30 615 65 30 625 65 30 635 65 30 645 65 30 655 65 30 665 65 30 675 65 30 685 65 30 695 65 30 705 65 30 
565 115 30 565 125 30 565 135 30 575 115 30 575 125 30 575 135 30 585 115 30 585 125 30 585 135 30 595 105 30 595 115 30 605 105 30 605 115 30 615 105 30 615 115 30 625 105 30 625 115 30 635 105 30 635 115 30 635 125 30 645 105 30 645 115 30 645 125 30 655 105 30 655 115 30 655 125 30 665 105 30 665 115 30 665 125 30 675 105 30 675 115 30 675 125 30 
805 205 30 805 215 30 815 205 30 815 215 30 825 205 30 825 215 30 835 215 30 845 215 30 855 215 30 865 215 30 875 215 30 885 215 30 885 225 30 895 215 30 895 225 30 905 215 30 905 225 30 915 215 30 915 225 30 925 215 30 925 225 30 
965 105 30 965 115 30 975 105 30 975 115 30 985 105 30 985 115 30 995 115 30 1005 115 30 1015 115 30 1025 115 30 
955 255 30 965 255 30 975 255 30 985 255 30 995 255 30 1005 255 30 1015 255 30 1025 255 30 1035 255 30 1045 255 30 1055 145 30 1055 155 30 1055 165 30 1055 205 30 1055 255 30 1065 175 30 1065 185 30 1065 195 30 1065 205 30 1065 215 30 1065 225 30 1065 235 30 1065 245 30 
1005 5 30 1005 15 30 1005 25 30 1005 35 30 1005 45 30 1005 55 30 1015 5 30 1015 65 30 1025 65 30 1035 65 30 1045 65 30 1055 65 30 1065 65 30 1075 65 30 
1005 305 30 1015 305 30 1025 305 30 1025 315 30 1035 305 30 1035 315 30 1045 315 30 1055 315 30 1065 315 30 1075 315 30 
-405 325 30 -405 335 30 -405 345 30 -405 355 30 -395 325 30 
-465 345 30 -465 355 30 -455 325 30 -455 335 30 -455 345 30 -455 355 30 
-515 325 30 -515 335 30 -515 345 30 -505 325 30 -505 335 30 -505 345 30 
-645 225 30 -645 235 30 -645 245 30 -645 255 30 -645 265 30 -645 275 30 -645 285 30 -645 295 30 -635 225 30 -635 235 30 -635 245 30 -635 255 30 -635 265 30 -635 275 30 -635 285 30 -635 295 30 
-645 305 30 -645 315 30 -645 325 30 -635 305 30 -635 315 30 -635 325 30 
-725 245 30 -725 255 30 -725 265 30 -725 275 30 -725 285 30 -725 295 30 -725 305 30 -725 315 30 -715 245 30 -715 255 30 -715 265 30 -715 275 30 -715 285 30 -715 295 30 -715 305 30 -715 315 30 
-215 485 30 -205 485 30 -195 485 30 -185 485 30 -175 485 30 
-155 515 30 -155 525 30 -155 535 30 -155 545 30 -145 515 30 -145 525 30 -145 535 30 -145 545 30 
-155 555 30 -155 565 30 -155 575 30 
-165 585 30 -165 595 30 -165 605 30 -165 615 30 -155 585 30 -155 595 30 -155 605 30 -155 615 30 
-235 615 30 -235 625 30 -225 625 30 -215 625 30 -205 625 30 -195 625 30 -185 625 30 
-295 565 30 -295 575 30 -295 585 30 -295 595 30 -295 605 30 -295 615 30 -295 625 30 -295 635 30 -295 645 30 -295 655 30 -295 665 30 -285 565 30 -285 575 30 -285 585 30 -285 595 30 -285 605 30 -285 615 30 -285 625 30 -285 635 30 -285 645 30 -285 655 30 -285 665 30 
-345 585 30 -345 595 30 -345 605 30 -345 615 30 -345 625 30 -345 635 30 -345 645 30 -335 585 30 
-435 645 30 -435 655 30 -425 645 30 -425 655 30 -415 655 30 -405 655 30 -395 655 30 -385 655 30 -375 655 30 
-545 535 30 -535 535 30 -525 535 30 -515 535 30 -505 535 30 -495 535 30 -485 535 30 -475 535 30 -465 535 30 -455 535 30 -445 535 30 -435 535 30 -425 535 30 -415 535 30 -405 535 30 -395 535 30 -385 535 30 -375 535 30 -375 545 30 
-665 575 30 -655 575 30 -645 575 30 -635 575 30 -625 575 30 -625 585 30 -615 575 30 -615 585 30 -605 575 30 -605 585 30 -595 575 30 -595 585 30 -585 575 30 -585 585 30 -575 575 30 -575 585 30 -565 575 30 -565 585 30 -555 575 30 -555 585 30 
-735 585 30 -735 595 30 -735 605 30 -735 615 30 -725 585 30 -725 595 30 -725 605 30 -725 615 30 
-735 625 30 -735 635 30 -735 645 30 -735 655 30 -735 665 30 -735 675 30 -735 685 30 
-875 595 30 -875 605 30 -875 615 30 -875 625 30 -865 595 30 -865 605 30 -865 615 30 -865 625 30 
-795 595 30 -795 605 30 -795 615 30 -795 625 30 -795 635 30 -795 645 30 -785 605 30 -785 615 30 -785 625 30 -785 635 30 -785 645 30 
-815 695 30 -805 685 30 -805 695 30 -795 685 30 -795 695 30 -785 685 30 -785 695 30 
-845 685 30 -835 685 30 -825 685 30 -815 685 30 
-885 645 30 -885 655 30 -885 665 30 -885 675 30 -885 685 30 -885 695 30 
-715 705 30 -705 705 30 -705 715 30 -695 705 30 -695 715 30 -685 715 30 -675 715 30 
-655 625 30 -655 635 30 -655 645 30 -655 655 30 -655 665 30 -655 675 30 -655 685 30 -655 695 30 -645 625 30 -645 635 30 -645 645 30 -645 655 30 -645 665 30 -645 675 30 -645 685 30 -645 695 30 
-705 535 30 -705 555 30 -695 515 30 -695 525 30 -695 535 30 -695 545 30 -695 555 30 -685 515 30 -685 525 30 -685 535 30 -685 545 30 
-995 575 30 -995 585 30 -985 575 30 -985 585 30 -975 575 30 -975 585 30 -965 575 30 -965 585 30 -955 585 30 -945 585 30 -935 585 30 
-555 375 30 -555 385 30 -555 395 30 -555 405 30 
-615 375 30 -615 385 30 -615 395 30 -605 375 30 -605 385 30 -605 395 30 
-675 375 30 -675 385 30 -675 395 30 -665 375 30 -665 385 30 -665 395 30 
-735 375 30 -735 385 30 -735 395 30 -735 405 30 -735 415 30 -725 375 30 -725 385 30 -725 395 30 -725 405 30 -725 415 30 
-725 185 30 -715 185 30 -705 185 30 -695 185 30 -685 185 30 -675 185 30 -675 195 30 -665 185 30 -665 195 30 -655 185 30 -655 195 30 -645 185 30 -645 195 30 -635 185 30 -635 195 30 -625 185 30 -625 195 30 -615 185 30 -615 195 30 
-415 195 30 -415 205 30 -405 195 30 -405 205 30 -395 195 30 -395 205 30 -385 195 30 -385 205 30 -375 205 30 -365 205 30 -355 205 30 -345 205 30 -335 205 30 -325 205 30 
-285 215 30 -285 225 30 -285 235 30 -285 245 30 -285 255 30 -285 265 30 -285 275 30 -275 215 30 -275 225 30 -275 235 30 -275 245 30 -275 255 30 -275 265 30 -275 275 30 
-365 295 30 -365 305 30 -365 315 30 -355 245 30 -355 255 30 -355 265 30 -355 275 30 -355 285 30 -355 295 30 -355 305 30 -355 315 30 
-255 675 30 -255 685 30 -255 695 30 -255 705 30 -255 715 30 -255 725 30 -255 735 30 -255 745 30 -245 675 30 -245 685 30 -245 695 30 -245 705 30 -245 715 30 -245 725 30 -245 735 30 -245 745 30 
-335 765 30 -325 765 30 -315 765 30 -305 765 30 -295 765 30 -285 765 30 
-225 395 30 -225 405 30 -215 395 30 -215 405 30 -205 395 30 -205 405 30 -195 395 30 -195 405 30 -185 395 30 -185 405 30 -175 395 30 -175 405 30 -175 415 30 -165 395 30 -165 405 30 -155 395 30 -155 405 30 -145 395 30 -135 395 30 -125 395 30 -115 395 30 -105 395 30 -105 405 30 
-1155 265 30 -1155 275 30 -1155 285 30 -1155 295 30 -1155 305 30 -1155 315 30 -1155 325 30 -1155 335 30 -1145 265 30 -1145 275 30 -1145 285 30 -1145 295 30 -1145 305 30 -1145 315 30 -1145 325 30 -1145 335 30 -1135 265 30 -1135 275 30 -1135 285 30 -1135 295 30 -1135 305 30 -1135 315 30 -1135 325 30 -1135 335 30 -1125 265 30 -1125 275 30 -1125 285 30 -1125 295 30 -1125 305 30 -1125 315 30 -1125 325 30 -1125 335 30 -1115 265 30 -1115 275 30 -1115 285 30 -1115 295 30 -1115 305 30 -1115 315 30 -1115 325 30 -1115 335 30 -1105 265 30 -1105 275 30 -1105 295 30 -1105 305 30 -1105 325 30 
-975 315 30 -975 325 30 -965 315 30 -965 325 30 -955 315 30 -955 325 30 -945 315 30 -945 325 30 -935 325 30 -925 325 30 -915 325 30 -905 325 30 -895 325 30 -885 325 30 -875 325 30 -865 325 30 -855 325 30 -845 325 30 -835 325 30 -825 325 30 -815 325 30 -805 325 30 -795 325 30 -785 315 30 -785 325 30 -785 335 30 -775 315 30 -775 325 30 -775 335 30 
-1025 -145 30 -1025 -135 30 -1025 -125 30 -1025 -115 30 -1025 -105 30 -1025 -95 30 -1025 -85 30 -1025 -75 30 -1015 -155 30 -1015 -145 30 -1015 -135 30 -1015 -125 30 -1015 -115 30 -1015 -105 30 -1015 -95 30 -1015 -85 30 -1015 -75 30 
-925 -105 30 -925 -95 30 -915 -105 30 -915 -95 30 
-755 -75 30 -755 -65 30 -755 -55 30 -755 -45 30 -745 -155 30 -745 -145 30 -745 -135 30 -745 -125 30 -745 -115 30 -745 -105 30 -745 -95 30 -745 -85 30 -745 -75 30 -745 -65 30 -745 -55 30 -745 -45 30 -735 -155 30 -735 -145 30 -735 -135 30 -735 -125 30 -735 -115 30 -735 -105 30 -735 -95 30 
-865 -65 30 -865 -55 30 -855 -55 30 -845 -55 30 -835 -55 30 -825 -55 30 -815 -55 30 -805 -55 30 -795 -55 30 -785 -55 30 
-675 -135 30 -675 -125 30 -675 -115 30 -675 -105 30 -675 -95 30 -675 -85 30 -675 -75 30 -675 -65 30 -675 -55 30 -665 -155 30 -665 -145 30 -665 -135 30 -665 -125 30 -665 -115 30 -665 -105 30 -665 -95 30 -665 -85 30 -665 -75 30 -665 -65 30 -665 -55 30 -655 -155 30 
-615 -185 30 -615 -175 30 -605 -185 30 -605 -175 30 -595 -185 30 -595 -175 30 -585 -185 30 -585 -175 30 -575 -185 30 -575 -175 30 -565 -185 30 -565 -175 30 -555 -175 30 -545 -175 30 -535 -175 30 -525 -175 30 -515 -175 30 
-345 -155 30 -345 -145 30 -345 -135 30 -345 -125 30 -345 -115 30 -345 -105 30 -345 -95 30 -345 -85 30 -345 -75 30 -345 -65 30 -345 -55 30 -345 -45 30 -345 -35 30 -345 -25 30 -335 -155 30 -335 -145 30 -335 -135 30 -335 -125 30 -335 -115 30 -335 -105 30 -335 -95 30 -335 -85 30 -335 -75 30 -335 -65 30 -335 -55 30 -335 -45 30 -335 -35 30 -335 -25 30 -325 -35 30 -325 -25 30 
-275 -165 30 -275 -155 30 -275 -145 30 -275 -135 30 -275 -125 30 -275 -115 30 -275 -105 30 -275 -95 30 -275 -85 30 -265 -165 30 -265 -155 30 -265 -145 30 -265 -135 30 -265 -125 30 -265 -115 30 -265 -105 30 -265 -95 30 -265 -85 30 
-305 -55 30 -305 -45 30 -305 -35 30 -305 -25 30 -305 -15 30 -295 -55 30 -295 -45 30 -295 -35 30 -295 -25 30 -295 -15 30 -285 -55 30 -285 -45 30 -285 -15 30 -275 -55 30 -275 -45 30 -275 -35 30 -275 -25 30 -275 -15 30 
-115 -65 30 -105 -65 30 -95 -65 30 -85 -65 30 -85 -55 30 -75 -65 30 -75 -55 30 -65 -65 30 -65 -55 30 
-225 -75 30 -215 -75 30 -215 -65 30 -205 -75 30 -205 -65 30 -195 -75 30 -195 -65 30 -185 -75 30 -185 -65 30 -175 -75 30 -175 -65 30 -165 -75 30 -165 -65 30 -155 -75 30 -155 -65 30 -145 -75 30 -145 -65 30 
-55 -35 30 -55 -25 30 -55 -15 30 -55 -5 30 -55 5 30 -55 15 30 -55 25 30 -55 35 30 -45 -35 30 -45 -25 30 -45 -15 30 -45 -5 30 -45 5 30 -45 15 30 -45 25 30 -45 35 30 
-25 35 30 -25 45 30 -15 35 30 -15 45 30 -5 35 30 -5 45 30 5 35 30 5 45 30 15 35 30 15 45 30 
-255 55 30 -255 65 30 -245 55 30 -245 65 30 -235 55 30 -235 65 30 -225 55 30 -225 65 30 -215 55 30 -215 65 30 -205 55 30 -205 65 30 -195 65 30 -185 65 30 -175 65 30 -165 65 30 -155 65 30 -145 65 30 -145 75 30 -135 65 30 -135 75 30 -125 65 30 -125 75 30 -115 65 30 -115 75 30 -105 65 30 -105 75 30 -95 65 30 -95 75 30 -85 65 30 -85 75 30 -75 65 30 -75 75 30 -65 65 30 -65 75 30 
-105 215 30 -105 225 30 -105 235 30 -105 245 30 -95 215 30 -95 225 30 -95 235 30 
-155 215 30 -155 225 30 -155 235 30 
-215 205 30 -215 215 30 -215 225 30 -215 235 30 -205 215 30 -205 225 30 -205 235 30 
-675 -725 30 -665 -725 30 -655 -725 30 
-755 -755 30 -755 -745 30 -745 -755 30 -745 -745 30 -745 -735 30 -735 -745 30 -735 -735 30 -725 -745 30 -725 -735 30 -715 -745 30 -715 -735 30 -705 -745 30 -705 -735 30 -695 -735 30 -695 -725 30 -685 -735 30 
-805 -735 30 -805 -725 30 -795 -735 30 -795 -725 30 -785 -735 30 -785 -725 30 -775 -735 30 -775 -725 30 
-795 -655 30 -785 -655 30 -775 -655 30 -765 -655 30 -755 -655 30 -745 -655 30 -735 -655 30 -735 -645 30 -725 -655 30 -715 -655 30 -705 -655 30 -695 -655 30 
-845 -695 30 -845 -685 30 -845 -675 30 -845 -665 30 -835 -715 30 -835 -705 30 -835 -695 30 -835 -685 30 -835 -675 30 
-845 -635 30 -845 -625 30 -845 -615 30 -835 -635 30 -835 -625 30 -835 -615 30 
-975 -605 30 -975 -595 30 -965 -595 30 -955 -595 30 -945 -605 30 -945 -595 30 -935 -605 30 -935 -595 30 -925 -605 30 -925 -595 30 -915 -595 30 -905 -595 30 -895 -595 30 -885 -595 30 -875 -595 30 
-1015 -585 30 -1015 -575 30 -1015 -565 30 -1015 -555 30 -1005 -585 30 -1005 -575 30 -1005 -565 30 -1005 -555 30 
-975 -545 30 -965 -545 30 -955 -545 30 -955 -535 30 -945 -545 30 -945 -535 30 -935 -545 30 -925 -545 30 -925 -535 30 -915 -545 30 -915 -535 30 -905 -545 30 -905 -535 30 -895 -545 30 -895 -535 30 
-1025 -515 30 -1025 -505 30 -1025 -495 30 -1025 -485 30 -1025 -475 30 -1015 -535 30 -1015 -525 30 -1015 -515 30 -1015 -505 30 -1015 -495 30 -1015 -485 30 -1015 -475 30 
-965 -475 30 -965 -465 30 -965 -455 30 -955 -475 30 -955 -465 30 -955 -455 30 -945 -475 30 -945 -465 30 -945 -455 30 -935 -455 30 -925 -455 30 -915 -455 30 -905 -455 30 -895 -455 30 -895 -445 30 -885 -445 30 -875 -445 30 -865 -445 30 -855 -445 30 -845 -445 30 -835 -445 30 -825 -445 30 -815 -445 30 -805 -445 30 -805 -435 30 -795 -445 30 -795 -435 30 -785 -445 30 -785 -435 30 -775 -445 30 -775 -435 30 -765 -445 30 -765 -435 30 
-655 -435 30 -655 -425 30 -645 -535 30 -645 -525 30 -645 -515 30 -645 -505 30 -645 -495 30 -645 -485 30 -645 -475 30 -645 -465 30 -645 -455 30 -645 -445 30 -645 -435 30 -645 -425 30 -635 -535 30 -635 -525 30 -635 -515 30 -635 -505 30 -635 -495 30 -635 -485 30 -635 -475 30 -635 -465 30 -635 -455 30 
-685 -425 30 -685 -415 30 -685 -405 30 -675 -425 30 -675 -415 30 -675 -405 30 
-685 -395 30 
-715 -435 30 -715 -425 30 -715 -415 30 -715 -405 30 -715 -395 30 -705 -425 30 -705 -415 30 -705 -405 30 -705 -395 30 
-715 -525 30 -715 -515 30 -715 -505 30 -715 -495 30 -715 -485 30 -715 -475 30 -715 -465 30 -705 -525 30 -705 -515 30 -705 -505 30 -705 -495 30 -705 -485 30 -705 -475 30 -705 -465 30 
-295 -585 30 -295 -575 30 -285 -585 30 -275 -585 30 -265 -585 30 -255 -585 30 -245 -585 30 -245 -575 30 -235 -585 30 -235 -575 30 -225 -585 30 -225 -575 30 -215 -585 30 -215 -575 30 -205 -585 30 -205 -575 30 -195 -585 30 -195 -575 30 -185 -585 30 -185 -575 30 
-285 -485 30 -285 -475 30 -285 -465 30 -275 -515 30 -275 -505 30 -275 -495 30 -275 -485 30 -275 -475 30 -275 -465 30 
-285 -435 30 -285 -425 30 -285 -415 30 -285 -405 30 -275 -435 30 -275 -425 30 -275 -415 30 -275 -405 30 
-255 -375 30 -255 -365 30 -255 -355 30 -245 -385 30 -245 -375 30 -245 -365 30 -245 -355 30 -245 -345 30 -235 -385 30 -235 -375 30 -235 -365 30 -235 -345 30 
-275 -315 30 -275 -305 30 -275 -295 30 -265 -315 30 -265 -305 30 -265 -295 30 -255 -315 30 -255 -305 30 -255 -295 30 -245 -315 30 -245 -305 30 -245 -295 30 -235 -315 30 -235 -305 30 -235 -295 30 
-335 -345 30 -325 -375 30 -325 -365 30 -325 -355 30 -325 -345 30 -315 -375 30 -315 -365 30 
-385 -375 30 -385 -365 30 -385 -355 30 -375 -375 30 -375 -365 30 -375 -355 30 
75 -135 30 75 -125 30 85 -175 30 85 -165 30 85 -155 30 85 -145 30 85 -135 30 85 -125 30 85 -115 30 95 -185 30 95 -175 30 95 -165 30 95 -155 30 95 -145 30 
-15 -445 30 -5 -445 30 5 -445 30 15 -445 30 15 -435 30 25 -445 30 25 -435 30 35 -445 30 35 -435 30 
-135 -455 30 -135 -445 30 -125 -455 30 -125 -445 30 -115 -455 30 -115 -445 30 -105 -455 30 -105 -445 30 -95 -445 30 -85 -445 30 -75 -445 30 -65 -455 30 -65 -445 30 -55 -455 30 -55 -445 30 -45 -455 30 -45 -445 30 -35 -455 30 -35 -445 30 
-155 -515 30 -155 -505 30 -155 -495 30 -155 -485 30 -155 -475 30 -155 -465 30 -145 -545 30 -145 -535 30 -145 -525 30 -145 -515 30 -145 -505 30 -145 -495 30 -145 -485 30 -145 -475 30 -145 -465 30 -135 -545 30 -135 -535 30 -135 -525 30 
-205 -495 30 -205 -485 30 -205 -475 30 -205 -465 30 -205 -455 30 -205 -445 30 -205 -435 30 -205 -425 30 -205 -415 30 -195 -495 30 -195 -485 30 -195 -475 30 -195 -465 30 -195 -455 30 -195 -445 30 -195 -435 30 -195 -425 30 -195 -415 30 
-665 -235 30 -665 -225 30 -665 -215 30 -655 -235 30 -655 -225 30 -655 -215 30 
-1095 -245 30 -1095 -235 30 -1095 -225 30 -1095 -215 30 -1095 -205 30 -1085 -245 30 -1085 -235 30 -1085 -225 30 -1085 -215 30 -1085 -205 30 -1075 -205 30 -1065 -215 30 -1065 -205 30 -1065 -195 30 -1065 -185 30 -1065 -175 30 -1055 -215 30 -1055 -205 30 -1055 -195 30 -1055 -185 30 -1055 -175 30 
75 -385 30 75 -375 30 75 -365 30 75 -355 30 75 -345 30 75 -335 30 75 -325 30 75 -315 30 75 -305 30 75 -295 30 75 -285 30 75 -275 30 75 -265 30 75 -255 30 75 -245 30 85 -385 30 85 -375 30 85 -365 30 85 -355 30 85 -345 30 85 -335 30 85 -325 30 85 -315 30 85 -305 30 85 -295 30 85 -285 30 85 -275 30 85 -265 30 85 -255 30 85 -245 30 
-95 -285 30 -85 -285 30 -75 -285 30 -65 -285 30 -55 -285 30 -45 -285 30 
-35 -255 30 -25 -255 30 -15 -255 30 -5 -255 30 5 -255 30 
-1025 -235 30 -1025 -225 30 -1015 -235 30 -1015 -225 30 -1005 -235 30 -1005 -225 30 -995 -225 30 -985 -225 30 -975 -225 30 -965 -225 30 -955 -225 30 -945 -225 30 -935 -225 30 -925 -225 30 -925 -215 30 -915 -225 30 -915 -215 30 -905 -225 30 -905 -215 30 -895 -225 30 -895 -215 30 -885 -225 30 -885 -215 30 -875 -225 30 -875 -215 30 -865 -225 30 -865 -215 30 
-1195 575 30 -1195 585 30 -1195 595 30 -1185 575 30 -1185 585 30 
-1205 635 30 -1205 645 30 -1205 655 30 -1205 665 30 -1205 675 30 -1205 685 30 -1195 635 30 
-1235 585 30 -1235 595 30 -1235 605 30 -1235 615 30 -1225 555 30 -1225 565 30 -1225 575 30 -1225 585 30 -1225 595 30 -1225 605 30 
-1245 655 30 -1245 665 30 -1235 635 30 -1235 645 30 -1235 655 30 -1235 665 30 
-245 565 30 -235 535 30 -235 545 30 -235 555 30 -235 565 30 -235 575 30 -225 535 30 -225 545 30 -225 555 30 -225 565 30 -225 575 30 -215 545 30 -215 555 30 
-1085 565 30 -1085 575 30 -1075 575 30 
-1085 555 30 -1075 495 30 -1075 505 30 -1075 515 30 -1075 525 30 -1075 535 30 -1075 545 30 -1075 555 30 
-1015 495 30 -1015 505 30 -1015 515 30 -1015 525 30 -1015 535 30 -1015 545 30 -1015 555 30 -1005 495 30 -1005 505 30 -1005 515 30 -1005 525 30 -1005 535 30 -1005 545 30 -1005 555 30 
375 225 30 375 235 30 375 245 30 375 255 30 375 265 30 375 275 30 385 225 30 385 235 30 385 245 30 385 255 30 385 265 30 385 275 30 395 225 30 395 235 30 395 245 30 395 255 30 395 265 30 395 275 30 405 225 30 405 235 30 405 245 30 405 255 30 405 265 30 405 275 30 
335 245 30 335 255 30 345 235 30 345 245 30 345 255 30 355 215 30 355 225 30 355 235 30 355 245 30 355 255 30 
-55 115 30 -55 125 30 -55 135 30 -45 105 30 -45 115 30 -45 125 30 -45 135 30 -45 145 30 -35 105 30 -35 115 30 -35 125 30 -35 135 30 -35 145 30 -25 105 30 -25 115 30 -25 125 30 -25 135 30 -25 145 30 -15 115 30 -15 125 30 -15 135 30 
-475 -255 30 -475 -245 30 -475 -235 30 -475 -225 30 
675 455 55 675 465 55 675 475 55 675 485 55 675 495 55 675 505 55 685 455 55 685 465 55 685 475 55 685 485 55 685 495 55 685 505 55 685 515 55 685 525 55 685 535 55 685 545 55 685 555 55 685 565 55 685 575 55 685 585 55 695 565 55 695 575 55 695 585 55 695 595 55 
195 315 55 195 325 55 205 315 55 205 325 55 215 325 55 
165 275 55 165 285 55 175 275 55 175 285 55 175 295 55 185 275 55 185 285 55 185 295 55 
695 395 55 695 405 55 705 405 55 715 405 55 725 405 55 735 405 55 745 405 55 755 405 55 755 415 55 765 405 55 765 415 55 775 415 55 785 415 55 795 415 55 805 415 55 815 415 55 825 415 55 825 425 55 835 415 55 835 425 55 845 415 55 845 425 55 855 415 55 855 425 55 
345 75 55 345 85 55 355 75 55 355 85 55 355 95 55 355 105 55 365 85 55 365 95 55 365 105 55 
-985 -145 55 -985 -135 55 -985 -125 55 -975 -145 55 -975 -135 55 -975 -125 55 -975 -115 55 -975 -105 55 -965 -145 55 -965 -135 55 -965 -125 55 -965 -115 55 -965 -105 55 -955 -145 55 -955 -135 55 -955 -125 55 -955 -115 55 -945 -145 55 -945 -135 55 -945 -125 55 -945 -115 55 -935 -145 55 -935 -135 55 -935 -125 55 -935 -115 55 
-925 -195 55 -925 -185 55 -925 -175 55 -915 -185 55 -915 -175 55 -915 -165 55 -915 -155 55 -915 -145 55 -905 -185 55 -905 -175 55 -905 -165 55 -905 -155 55 -905 -145 55 -895 -185 55 -895 -175 55 -895 -165 55 -885 -185 55 -885 -175 55 -885 -165 55 
-855 -5 55 -845 -5 55 -835 -5 55 -825 -5 55 -815 -5 55 -805 -5 55 -805 5 55 -795 -5 55 -795 5 55 -785 -5 55 -785 5 55 -775 -5 55 -775 5 55 -765 -5 55 -765 5 55 -755 -5 55 -755 5 55 -745 -5 55 -745 5 55 -735 -5 55 -735 5 55 -725 -5 55 -725 5 55 -715 -5 55 -715 5 55 -705 -5 55 -705 5 55 -695 -5 55 -695 5 55 -685 5 55 -675 5 55 -665 5 55 
-515 -375 55 -515 -365 55 -515 -355 55 -505 -375 55 -505 -365 55 -505 -355 55 
-565 -385 55 -565 -375 55 -565 -365 55 -565 -355 55 -555 -385 55 -555 -375 55 -555 -365 55 -555 -355 55 
-625 -385 55 -625 -375 55 -625 -365 55 -625 -355 55 -615 -385 55 -615 -375 55 -615 -365 55 -615 -355 55 -605 -385 55 -605 -375 55 -605 -365 55 
-165 -325 55 -165 -315 55 -155 -325 55 -155 -315 55 -145 -325 55 -145 -315 55 -135 -325 55 -135 -315 55 -125 -325 55 -125 -315 55 -115 -315 55 -105 -315 55 -95 -315 55 
755 165 55 755 175 55 755 185 55 755 195 55 765 175 55 765 185 55 765 195 55 
755 115 55 755 125 55 755 135 55 755 145 55 765 115 55 765 125 55 765 135 55 765 145 55 
455 225 55 465 225 55 475 225 55 485 225 55 495 225 55 
515 225 55 525 225 55 535 225 55 545 225 55 555 225 55 
585 225 55 585 235 55 595 225 55 595 235 55 605 225 55 605 235 55 615 225 55 615 235 55 625 225 55 625 235 55 
-225 355 55 -225 365 55 -215 355 55 -215 365 55 -205 355 55 -205 365 55 -195 355 55 -195 365 55 -185 355 55 -185 365 55 -175 355 55 -175 365 55 -165 355 55 -165 365 55 -155 355 55 -155 365 55 -145 355 55 -145 365 55 -135 355 55 -135 365 55 -125 355 55 -125 365 55 -115 365 55 -105 365 55 
-505 -215 55 -505 -205 55 -495 -215 55 -495 -205 55 -485 -215 55 -485 -205 55 -475 -215 55 -475 -205 55 -465 -215 55 -465 -205 55 -455 -215 55 -455 -205 55 -445 -215 55 -445 -205 55 -435 -215 55 -435 -205 55 -425 -215 55 -425 -205 55 -415 -215 55 -415 -205 55 -405 -215 55 -405 -205 55 -395 -215 55 -395 -205 55 -385 -215 55 -385 -205 55 -375 -215 55 -375 -205 55 -365 -205 55 -355 -205 55 -345 -205 55 -335 -205 55 -325 -205 55 -315 -205 55 -305 -205 55 -295 -215 55 -295 -205 55 -285 -215 55 -285 -205 55 
